Benjamin (songhao)Ma's Website – index
…
scl <- sub %>% scale() %>% as_tibble()
scl

# A tibble: 32 × 2
         wt    mpg
      <dbl>  <dbl>
 1 -0.610    0.151
 2 -0.350    0.151
 3 -0.917    0.450
 4 -0.00230  0.217
 5  0.228   -0.231
 6  0.248   -0.330
 7  0.361   -0.961
 8 -0.0278   0.715
 9 -0.0687   0.450
10  0.228   -0.148
# ℹ 22 more rows
…
