Benjamin (songhao)Ma's Website – index
…
 scl <- sub %>% scale() %>% as_tibble()
    scl

# A tibble: 3,000 × 2
    gaming handsize
     <dbl>    <dbl>
 1  0.509    0.661 
 2  1.35    -1.26  
 3  0.0268   0.336 
 4  0.977   -0.971 
 5 -0.246   -0.339 
 6  1.74     0.507 
 7 -0.661    0.0371
 8 -0.641   -2.13  
 9  1.72    -0.296 
10 -0.784   -0.569 
# ℹ 2,990 more rows
…
